{
  "file_generated_by": "FlutterFire CLI",
  "purpose": "FirebaseAppID & ProjectID for this Firebase app in this directory",
  "GOOGLE_APP_ID": "1:181641157696:ios:17389822758b0ed94c13a5",
  "FIREBASE_PROJECT_ID": "sms-manage",
  "GCM_SENDER_ID": "181641157696"
}